{
  "images" : [
    {
      "filename" : "PikPng.com_chevron-icon-png_4164697.png",
      "idiom" : "universal",
      "scale" : "1x"
    },
    {
      "filename" : "PikPng.com_chevron-icon-png_4164697-1.png",
      "idiom" : "universal",
      "scale" : "2x"
    },
    {
      "filename" : "PikPng.com_chevron-icon-png_4164697-2.png",
      "idiom" : "universal",
      "scale" : "3x"
    }
  ],
  "info" : {
    "author" : "xcode",
    "version" : 1
  }
}
